[
  {
    "bfs_nr_gemeinde": "4401",
    "gemeinde_name": "Arbon",
    "jahr": "2022",
    "geschlecht_code": 2,
    "geschlecht_bezeichnung": "Weiblich",
    "anzahl_personen": "2460"
  },
  {
    "bfs_nr_gemeinde": "4411",
    "gemeinde_name": "Egnach",
    "jahr": "2022",
    "geschlecht_code": 2,
    "geschlecht_bezeichnung": "Weiblich",
    "anzahl_personen": "2078"
  },
  {
    "bfs_nr_gemeinde": "4416",
    "gemeinde_name": "Hefenhofen",
    "jahr": "2022",
    "geschlecht_code": 1,
    "geschlecht_bezeichnung": "M\u00e4nnlich",
    "anzahl_personen": "548"
  },
  {
    "bfs_nr_gemeinde": "4746",
    "gemeinde_name": "M\u00fcnchwilen",
    "jahr": "2022",
    "geschlecht_code": 1,
    "geschlecht_bezeichnung": "M\u00e4nnlich",
    "anzahl_personen": "2211"
  },
  {
    "bfs_nr_gemeinde": "4751",
    "gemeinde_name": "Rickenbach",
    "jahr": "2022",
    "geschlecht_code": 1,
    "geschlecht_bezeichnung": "M\u00e4nnlich",
    "anzahl_personen": "886"
  },
  {
    "bfs_nr_gemeinde": "4476",
    "gemeinde_name": "Erlen",
    "jahr": "2021",
    "geschlecht_code": 1,
    "geschlecht_bezeichnung": "M\u00e4nnlich",
    "anzahl_personen": "1395"
  },
  {
    "bfs_nr_gemeinde": "4781",
    "gemeinde_name": "W\u00e4ngi",
    "jahr": "2021",
    "geschlecht_code": 1,
    "geschlecht_bezeichnung": "M\u00e4nnlich",
    "anzahl_personen": "2058"
  },
  {
    "bfs_nr_gemeinde": "4571",
    "gemeinde_name": "Gachnang",
    "jahr": "2020",
    "geschlecht_code": 1,
    "geschlecht_bezeichnung": "M\u00e4nnlich",
    "anzahl_personen": "1885"
  },
  {
    "bfs_nr_gemeinde": "4590",
    "gemeinde_name": "H\u00fcttlingen",
    "jahr": "2020",
    "geschlecht_code": 1,
    "geschlecht_bezeichnung": "M\u00e4nnlich",
    "anzahl_personen": "388"
  },
  {
    "bfs_nr_gemeinde": "4591",
    "gemeinde_name": "Matzingen",
    "jahr": "2020",
    "geschlecht_code": 2,
    "geschlecht_bezeichnung": "Weiblich",
    "anzahl_personen": "1108"
  },
  {
    "bfs_nr_gemeinde": "4611",
    "gemeinde_name": "Thundorf",
    "jahr": "2020",
    "geschlecht_code": 1,
    "geschlecht_bezeichnung": "M\u00e4nnlich",
    "anzahl_personen": "716"
  },
  {
    "bfs_nr_gemeinde": "4946",
    "gemeinde_name": "Weinfelden",
    "jahr": "2020",
    "geschlecht_code": 1,
    "geschlecht_bezeichnung": "M\u00e4nnlich",
    "anzahl_personen": "4425"
  },
  {
    "bfs_nr_gemeinde": "4646",
    "gemeinde_name": "Ermatingen",
    "jahr": "2019",
    "geschlecht_code": 1,
    "geschlecht_bezeichnung": "M\u00e4nnlich",
    "anzahl_personen": "1153"
  }
]
