{
  "map": [
    {
      "bfs_nr_gemeinde": "4401",
      "gemeinde_name": "Arbon",
      "bezirk_name": "Arbon",
      "jahr": "2022",
      "anzahl_personen_total": "10000",
      "anzahl_personen_maennlich": "5000",
      "anzahl_personen_maennlich_schweiz": "2500",
      "anzahl_personen_maennlich_ausland": "2500",
      "anzahl_personen_weiblich": "5000",
      "anzahl_personen_weiblich_schweiz": "2500",
      "anzahl_personen_weiblich_ausland": "2500"
    },
    {
      "bfs_nr_gemeinde": "5000",
      "gemeinde_name": "Arbon",
      "bezirk_name": "Arbon",
      "jahr": "2022",
      "anzahl_personen_total": "10000",
      "anzahl_personen_maennlich": "5000",
      "anzahl_personen_maennlich_schweiz": "2500",
      "anzahl_personen_maennlich_ausland": "2500",
      "anzahl_personen_weiblich_schweiz": "2500",
      "anzahl_personen_weiblich_ausland": "2500"
    }
  ]
}
